data.table vs dplyr: A Side-by-Side Comparison – Blog
…
Get data

First, let us take a look at our data.

library(dplyr)
library(data.table)
ames <- modeldata::ames |>
  janitor::clean_names() |> 
  as_tibble() # this is already the case but for comparability done here again
ames

# A tibble: 2,930 × 74
   ms_sub_class           ms_zoning lot_frontage lot_area street alley lot_shape
   <fct>                  <fct>            <dbl>    <int> <fct>  <fct> <fct>    
 1 One_Story_1946_and_Ne… Resident…          141    31770 Pave   No_A… Slightly…
 2 One_Story_1946_and_Ne… Resident…           80    11622 Pave   No_A… Regular  
 3 One_Story_1946_and_Ne… Resident…           81    14267 Pave   No_A… Slightly…
 4 One_Story_1946_and_Ne… Resident…           93    11160 Pave   No_A… Regular  
 5 Two_Story_1946_and_Ne… Resident…           74    13830 Pave   No_A… Slightly…
 6 Two_Story_1946_and_Ne… Resident…           78     9978 Pave   No_A… Slightly…
 7 One_Story_PUD_1946_an… Resident…           41     4920 Pave   No_A… Regular  
 8 One_Story_PUD_1946_an… Resident…           43     5005 Pave   No_A… Slightly…
 9 One_Story_PUD_1946_an… Resident…           39     5389 Pave   No_A… Slightly…
10 Two_Story_1946_and_Ne… Resident…           60     7500 Pave   No_A… Regular  
# ℹ 2,920 more rows
# ℹ 67 more variables: land_contour <fct>, utilities <fct>, lot_config <fct>,
#   land_slope <fct>, neighborhood <fct>, condition_1 <fct>, condition_2 <fct>,
#   bldg_type <fct>, house_style <fct>, overall_cond <fct>, year_built <int>,
#   year_remod_add <int>, roof_style <fct>, roof_matl <fct>,
#   exterior_1st <fct>, exterior_2nd <fct>, mas_vnr_type <fct>,
#   mas_vnr_area <dbl>, exter_cond <fct>, foundation <fct>, bsmt_cond <fct>, …
…
So let me explain the system behind {data.table}. The most basic thing to understand is that a data.table df can be modified via a bracket using up to three different components. This might look something like df[i, j, by].

The first component i refers to rows that are “modified”. The second component j refers to columns that might be modified. And the third component by refers to any grouping you might want to use.

But enough theory. Let’s see this in action.

Sort specific columns

dplyr
data.table

ames |> arrange(lot_frontage) 

# A tibble: 2,930 × 74
   ms_sub_class           ms_zoning lot_frontage lot_area street alley lot_shape
   <fct>                  <fct>            <dbl>    <int> <fct>  <fct> <fct>    
 1 One_Story_1946_and_Ne… Resident…            0     7980 Pave   No_A… Slightly…
 2 One_Story_PUD_1946_an… Resident…            0     6820 Pave   No_A… Slightly…
 3 Two_Story_1946_and_Ne… Floating…            0     7500 Pave   No_A… Regular  
 4 One_Story_1946_and_Ne… Resident…            0    11241 Pave   No_A… Slightly…
 5 One_Story_1946_and_Ne… Resident…            0    12537 Pave   No_A… Slightly…
 6 Two_Story_1946_and_Ne… Resident…            0     7851 Pave   No_A… Regular  
 7 Split_or_Multilevel    Resident…            0     7750 Pave   No_A… Slightly…
 8 Two_Story_1946_and_Ne… Resident…            0     9505 Pave   No_A… Slightly…
 9 Two_Story_1946_and_Ne… Resident…            0     8880 Pave   No_A… Slightly…
10 Two_Story_1946_and_Ne… Resident…            0     9453 Pave   No_A… Slightly…
# ℹ 2,920 more rows
# ℹ 67 more variables: land_contour <fct>, utilities <fct>, lot_config <fct>,
#   land_slope <fct>, neighborhood <fct>, condition_1 <fct>, condition_2 <fct>,
#   bldg_type <fct>, house_style <fct>, overall_cond <fct>, year_built <int>,
#   year_remod_add <int>, roof_style <fct>, roof_matl <fct>,
#   exterior_1st <fct>, exterior_2nd <fct>, mas_vnr_type <fct>,
#   mas_vnr_area <dbl>, exter_cond <fct>, foundation <fct>, bsmt_cond <fct>, …
…
Filter for specific rows

dplyr
data.table

ames |> filter(sale_price > 300000)

# A tibble: 230 × 74
   ms_sub_class           ms_zoning lot_frontage lot_area street alley lot_shape
   <fct>                  <fct>            <dbl>    <int> <fct>  <fct> <fct>    
 1 Two_Story_1946_and_Ne… Resident…           47    53504 Pave   No_A… Moderate…
 2 One_Story_1946_and_Ne… Resident…           88    11394 Pave   No_A… Regular  
 3 Two_Story_1946_and_Ne… Resident…          102    12858 Pave   No_A… Slightly…
 4 One_Story_1946_and_Ne… Resident…           98    11478 Pave   No_A… Regular  
 5 One_Story_1946_and_Ne… Resident…           83    10159 Pave   No_A… Slightly…
 6 One_Story_1946_and_Ne… Resident…          100    12919 Pave   No_A… Slightly…
 7 One_Story_1946_and_Ne… Resident…          110    14300 Pave   No_A… Regular  
 8 Two_Story_1946_and_Ne… Resident…          105    13650 Pave   No_A… Regular  
 9 One_Story_PUD_1946_an… Resident…           61     7658 Pave   No_A… Regular  
10 Two_Story_1946_and_Ne… Resident…          108    14774 Pave   No_A… Slightly…
# ℹ 220 more rows
# ℹ 67 more variables: land_contour <fct>, utilities <fct>, lot_config <fct>,
#   land_slope <fct>, neighborhood <fct>, condition_1 <fct>, condition_2 <fct>,
#   bldg_type <fct>, house_style <fct>, overall_cond <fct>, year_built <int>,
#   year_remod_add <int>, roof_style <fct>, roof_matl <fct>,
#   exterior_1st <fct>, exterior_2nd <fct>, mas_vnr_type <fct>,
#   mas_vnr_area <dbl>, exter_cond <fct>, foundation <fct>, bsmt_cond <fct>, …
…
Select specific columns

dplyr
data.table
data.table (.() shorthand)

ames |> 
  filter(sale_price > 300000) |> 
  select(neighborhood, sale_price, lot_area)

# A tibble: 230 × 3
   neighborhood       sale_price lot_area
   <fct>                   <int>    <int>
 1 Stone_Brook            538000    53504
 2 Stone_Brook            394432    11394
 3 Northridge_Heights     376162    12858
 4 Northridge_Heights     306000    11478
 5 Northridge_Heights     395192    10159
 6 Northridge_Heights     611657    12919
 7 Northridge_Heights     500000    14300
 8 Northridge_Heights     320000    13650
 9 Northridge_Heights     319900     7658
10 Northridge             333168    14774
# ℹ 220 more rows
…
Select many columns by name

dplyr
data.table

ames |> select(contains('area'))

# A tibble: 2,930 × 5
   lot_area mas_vnr_area gr_liv_area garage_area pool_area
      <int>        <dbl>       <int>       <dbl>     <int>
 1    31770          112        1656         528         0
 2    11622            0         896         730         0
 3    14267          108        1329         312         0
 4    11160            0        2110         522         0
 5    13830            0        1629         482         0
 6     9978           20        1604         470         0
 7     4920            0        1338         582         0
 8     5005            0        1280         506         0
 9     5389            0        1616         608         0
10     7500            0        1804         442         0
# ℹ 2,920 more rows
…
Select many columns by type

dplyr
data.table

ames |> 
  select(where(is.numeric))

# A tibble: 2,930 × 34
   lot_frontage lot_area year_built year_remod_add mas_vnr_area bsmt_fin_sf_1
          <dbl>    <int>      <int>          <int>        <dbl>         <dbl>
 1          141    31770       1960           1960          112             2
 2           80    11622       1961           1961            0             6
 3           81    14267       1958           1958          108             1
 4           93    11160       1968           1968            0             1
 5           74    13830       1997           1998            0             3
 6           78     9978       1998           1998           20             3
 7           41     4920       2001           2001            0             3
 8           43     5005       1992           1992            0             1
 9           39     5389       1995           1996            0             3
10           60     7500       1999           1999            0             7
# ℹ 2,920 more rows
# ℹ 28 more variables: bsmt_fin_sf_2 <dbl>, bsmt_unf_sf <dbl>,
#   total_bsmt_sf <dbl>, first_flr_sf <int>, second_flr_sf <int>,
#   gr_liv_area <int>, bsmt_full_bath <dbl>, bsmt_half_bath <dbl>,
#   full_bath <int>, half_bath <int>, bedroom_abv_gr <int>,
#   kitchen_abv_gr <int>, tot_rms_abv_grd <int>, fireplaces <int>,
#   garage_cars <dbl>, garage_area <dbl>, wood_deck_sf <int>, …
…
Compute a new column

dplyr
data.table (new data.table)

ames |> 
  filter(sale_price > 300000) |> 
  select(neighborhood, sale_price, lot_area) |> 
  mutate(
    price_by_lot_area = sale_price / lot_area
  )

# A tibble: 230 × 4
   neighborhood       sale_price lot_area price_by_lot_area
   <fct>                   <int>    <int>             <dbl>
 1 Stone_Brook            538000    53504              10.1
 2 Stone_Brook            394432    11394              34.6
 3 Northridge_Heights     376162    12858              29.3
 4 Northridge_Heights     306000    11478              26.7
 5 Northridge_Heights     395192    10159              38.9
 6 Northridge_Heights     611657    12919              47.3
 7 Northridge_Heights     500000    14300              35.0
 8 Northridge_Heights     320000    13650              23.4
 9 Northridge_Heights     319900     7658              41.8
10 Northridge             333168    14774              22.6
# ℹ 220 more rows
…
dplyr
data.table (new)
data.table (in-place)

ames |> 
  filter(sale_price > 300000) |> 
  select(neighborhood, sale_price, lot_area) |> 
  mutate(
    price_by_lot_area = sale_price / lot_area,
    log_sale_price = log(sale_price),
    log_price_by_lot_area = log_sale_price / lot_area
  )

# A tibble: 230 × 6
   neighborhood       sale_price lot_area price_by_lot_area log_sale_price
   <fct>                   <int>    <int>             <dbl>          <dbl>
 1 Stone_Brook            538000    53504              10.1           13.2
 2 Stone_Brook            394432    11394              34.6           12.9
 3 Northridge_Heights     376162    12858              29.3           12.8
 4 Northridge_Heights     306000    11478              26.7           12.6
 5 Northridge_Heights     395192    10159              38.9           12.9
 6 Northridge_Heights     611657    12919              47.3           13.3
 7 Northridge_Heights     500000    14300              35.0           13.1
 8 Northridge_Heights     320000    13650              23.4           12.7
 9 Northridge_Heights     319900     7658              41.8           12.7
10 Northridge             333168    14774              22.6           12.7
# ℹ 220 more rows
# ℹ 1 more variable: log_price_by_lot_area <dbl>
…
dplyr
data.table

In dplyr this needs the across() function inside of summarize().

ames |> 
  summarize(
    across(
      .cols = contains('area'),
      .fns = mean
    ),
    .by = neighborhood
  )

# A tibble: 28 × 6
   neighborhood        lot_area mas_vnr_area gr_liv_area garage_area pool_area
   <fct>                  <dbl>        <dbl>       <dbl>       <dbl>     <dbl>
 1 North_Ames            10040.         92.2       1292.        423.     1.99 
 2 Gilbert               11342.         39.2       1621.        454.     0    
 3 Stone_Brook           11383.        211.        1949.        626.     0    
 4 Northwest_Ames        11662.        171.        1689.        535.     8.91 
 5 Somerset               7611.        138.        1605.        620.     0    
 6 Briardale              1841.        364.        1115.        292      0    
 7 Northpark_Villa        2756.          0         1244.        421.     0    
 8 Northridge_Heights    11217.        331.        1943.        748.     0.867
 9 Bloomington_Heights    3399.         41.6       1405.        493.     0    
10 Northridge            12976.        417.        2481.        721.     7.82 
# ℹ 18 more rows
…
Or we could also cover, say, numeric columns. In that case we shouldn’t use .cols = contains() and .SDcols = patterns(). Instead we’d use .cols = where(is.numeric) and .SDcols = is.numeric:

dplyr
data.table

ames |> 
  summarize(
    across(
      .cols = where(is.numeric),
      .fns = mean
    ),
    .by = neighborhood
  )

# A tibble: 28 × 35
   neighborhood     lot_frontage lot_area year_built year_remod_add mas_vnr_area
   <fct>                   <dbl>    <dbl>      <dbl>          <dbl>        <dbl>
 1 North_Ames               63.7   10040.      1960.          1971.         92.2
 2 Gilbert                  49.9   11342.      1998.          1999.         39.2
 3 Stone_Brook              56.1   11383.      1999.          2000.        211. 
 4 Northwest_Ames           52.9   11662.      1976.          1980.        171. 
 5 Somerset                 57.5    7611.      2005.          2005.        138. 
 6 Briardale                21.5    1841.      1972.          1973         364. 
 7 Northpark_Villa          25.7    2756.      1976.          1976.          0  
 8 Northridge_Heig…         82.7   11217.      2006.          2006.        331. 
 9 Bloomington_Hei…         33.5    3399.      2005.          2005.         41.6
10 Northridge               69.7   12976.      1995.          1997.        417. 
# ℹ 18 more rows
# ℹ 29 more variables: bsmt_fin_sf_1 <dbl>, bsmt_fin_sf_2 <dbl>,
#   bsmt_unf_sf <dbl>, total_bsmt_sf <dbl>, first_flr_sf <dbl>,
#   second_flr_sf <dbl>, gr_liv_area <dbl>, bsmt_full_bath <dbl>,
#   bsmt_half_bath <dbl>, full_bath <dbl>, half_bath <dbl>,
#   bedroom_abv_gr <dbl>, kitchen_abv_gr <dbl>, tot_rms_abv_grd <dbl>,
#   fireplaces <dbl>, garage_cars <dbl>, garage_area <dbl>, …
…
